com/es/client/dao/DocUploadDaoInter.class
com/es/client/model/ImageList.class
com/es/client/dao/RunnerBoyLoginDaoInter.class
com/es/client/model/IdProofModel.class
com/es/client/model/UploadImageRequest.class
com/es/client/model/RbLoginResponseVo.class
com/es/client/model/GPSlocationModel.class
com/es/client/model/RunnerBoyResponseVO.class
com/es/client/bussinesslogic/LogMasterBusinessLogic.class
com/es/client/model/RBCustomerResponseVO.class
com/es/client/model/UpdateUrlDescVO.class
com/es/client/handler/RBHandler$RequestId.class
com/es/client/handler/RBHandler.class
com/es/client/handler/RBHandler$1.class
com/es/client/service/RunnerBoyLoginserviceImpl.class
com/es/client/model/LogMasterModel.class
com/es/client/model/ResponseCodeModel.class
com/es/client/util/DBConnection.class
com/es/client/dao/RunnerBoyLoginDaoImpl.class
com/es/client/dao/DocUploadDaoImp.class
com/es/client/model/RunnerBoyInfoModel.class
com/es/client/model/RunnerBoyLoginModel.class
com/es/client/service/RunnerBoyLoginserviceInter.class
com/es/client/bussinesslogic/SendSmsService.class
com/es/client/bussinesslogic/MD5Convert.class
